{
  "orders": [
    {
      "_id": "ORD-12345",
      "orderNumber": "ORD-12345",
      "buyerId": "USER-BUYER-001",
      "buyerName": "John Buyer",
      "buyerEmail": "john.buyer@example.com",
      "status": "pending",
      "paymentStatus": "paid",
      "fulfillmentStatus": "processing",
      "createdAt": 1650000000000,
      "updatedAt": 1650000100000,
      "total": 24.95,
      "subtotal": 24.95,
      "items": [
        {
          "productId": "PROD-001",
          "productName": "Organic Carrots (5lb)",
          "quantity": 5,
          "price": 4.99,
          "total": 24.95,
          "image": "/bunch-of-carrots.png"
        }
      ],
      "shippingAddress": {
        "name": "Restaurant Address",
        "street": "123 Main St",
        "city": "San Francisco",
        "state": "CA",
        "zip": "94105",
        "country": "USA"
      },
      "notes": "Please deliver before 10am",
      "timeline": [
        {
          "status": "order_received",
          "timestamp": 1650000000000,
          "message": "Order received"
        },
        {
          "status": "payment_confirmed",
          "timestamp": 1650000100000,
          "message": "Payment confirmed"
        },
        {
          "status": "processing",
          "timestamp": 1650001000000,
          "message": "Order is being processed"
        }
      ]
    },
    {
      "_id": "ORD-12344",
      "orderNumber": "ORD-12344",
      "buyerId": "USER-BUYER-002",
      "buyerName": "Sarah Customer",
      "buyerEmail": "sarah.customer@example.com",
      "status": "completed",
      "paymentStatus": "paid",
      "fulfillmentStatus": "delivered",
      "createdAt": 1649700000000,
      "updatedAt": 1649800000000,
      "total": 23.97,
      "subtotal": 23.97,
      "items": [
        {
          "productId": "PROD-004",
          "productName": "Organic Avocados",
          "quantity": 3,
          "price": 7.99,
          "total": 23.97,
          "image": "/avocados.png"
        }
      ],
      "shippingAddress": {
        "name": "Cafe XYZ",
        "street": "456 Oak St",
        "city": "San Francisco",
        "state": "CA",
        "zip": "94110",
        "country": "USA"
      },
      "notes": "",
      "timeline": [
        {
          "status": "order_received",
          "timestamp": 1649700000000,
          "message": "Order received"
        },
        {
          "status": "payment_confirmed",
          "timestamp": 1649700100000,
          "message": "Payment confirmed"
        },
        {
          "status": "processing",
          "timestamp": 1649710000000,
          "message": "Order is being processed"
        },
        {
          "status": "shipped",
          "timestamp": 1649750000000,
          "message": "Order has been shipped",
          "trackingNumber": "TRK123456789",
          "carrier": "FedEx"
        },
        {
          "status": "delivered",
          "timestamp": 1649800000000,
          "message": "Order has been delivered"
        }
      ]
    },
    {
      "_id": "ORD-12340",
      "orderNumber": "ORD-12340",
      "buyerId": "USER-BUYER-001",
      "buyerName": "John Buyer",
      "buyerEmail": "john.buyer@example.com",
      "status": "completed",
      "paymentStatus": "paid",
      "fulfillmentStatus": "delivered",
      "createdAt": 1649000000000,
      "updatedAt": 1649200000000,
      "total": 31.96,
      "subtotal": 31.96,
      "items": [
        {
          "productId": "PROD-004",
          "productName": "Organic Avocados",
          "quantity": 4,
          "price": 7.99,
          "total": 31.96,
          "image": "/avocados.png"
        }
      ],
      "shippingAddress": {
        "name": "Restaurant Address",
        "street": "123 Main St",
        "city": "San Francisco",
        "state": "CA",
        "zip": "94105",
        "country": "USA"
      },
      "notes": "",
      "timeline": [
        {
          "status": "order_received",
          "timestamp": 1649000000000,
          "message": "Order received"
        },
        {
          "status": "payment_confirmed",
          "timestamp": 1649000100000,
          "message": "Payment confirmed"
        },
        {
          "status": "processing",
          "timestamp": 1649010000000,
          "message": "Order is being processed"
        },
        {
          "status": "shipped",
          "timestamp": 1649100000000,
          "message": "Order has been shipped",
          "trackingNumber": "TRK123456780",
          "carrier": "UPS"
        },
        {
          "status": "delivered",
          "timestamp": 1649200000000,
          "message": "Order has been delivered"
        }
      ]
    }
  ],
  "pagination": {
    "total": 156,
    "page": 1,
    "pageSize": 10,
    "totalPages": 16
  },
  "filters": {
    "statuses": [
      "pending",
      "processing",
      "completed",
      "cancelled",
      "refunded"
    ],
    "fulfillmentStatuses": [
      "processing",
      "shipped",
      "delivered",
      "returned"
    ],
    "dateRanges": [
      "Today",
      "Yesterday",
      "Last 7 days",
      "Last 30 days",
      "This month",
      "Last month",
      "Custom range"
    ]
  }
}
