{
  "products": [
    {
      "_id": "PROD-001",
      "name": "Organic Carrots (5lb)",
      "description": "Fresh organic carrots from local farms. Our carrots are grown using sustainable farming practices and harvested at peak freshness.",
      "price": 4.99,
      "unit": "bag",
      "category": "Vegetables",
      "subcategory": "Root Vegetables",
      "inventory": 120,
      "sellerId": "SELLER-001",
      "sellerName": "Green Farms",
      "status": "active",
      "createdAt": 1620000000000,
      "updatedAt": 1630000000000,
      "featured": true,
      "rating": 4.8,
      "reviewCount": 156,
      "salesCount": 789
    },
    {
      "_id": "PROD-002",
      "name": "Artisan Sourdough Bread",
      "description": "Handcrafted sourdough bread made with organic flour and our 100-year-old starter culture.",
      "price": 6.99,
      "unit": "loaf",
      "category": "Bakery",
      "subcategory": "Bread",
      "inventory": 45,
      "sellerId": "SELLER-002",
      "sellerName": "Artisan Bakery",
      "status": "active",
      "createdAt": 1621000000000,
      "updatedAt": 1631000000000,
      "featured": true,
      "rating": 4.7,
      "reviewCount": 123,
      "salesCount": 567
    },
    {
      "_id": "PROD-003",
      "name": "Grass-Fed Ground Beef",
      "description": "Premium ground beef from grass-fed, pasture-raised cattle. No hormones or antibiotics.",
      "price": 8.99,
      "unit": "lb",
      "category": "Meat",
      "subcategory": "Beef",
      "inventory": 80,
      "sellerId": "SELLER-003",
      "sellerName": "Premium Meats",
      "status": "active",
      "createdAt": 1622000000000,
      "updatedAt": 1632000000000,
      "featured": false,
      "rating": 4.6,
      "reviewCount": 98,
      "salesCount": 432
    },
    {
      "_id": "PROD-004",
      "name": "Organic Avocados",
      "description": "Perfectly ripe organic avocados, ready to eat or use in your favorite recipes.",
      "price": 7.99,
      "unit": "bag",
      "category": "Fruits",
      "subcategory": "Fresh Fruits",
      "inventory": 60,
      "sellerId": "SELLER-001",
      "sellerName": "Green Farms",
      "status": "active",
      "createdAt": 1623000000000,
      "updatedAt": 1633000000000,
      "featured": true,
      "rating": 4.9,
      "reviewCount": 87,
      "salesCount": 345
    },
    {
      "_id": "PROD-005",
      "name": "Artisan Goat Cheese",
      "description": "Creamy, tangy goat cheese made in small batches from pasture-raised goats.",
      "price": 9.99,
      "unit": "8oz",
      "category": "Dairy",
      "subcategory": "Cheese",
      "inventory": 35,
      "sellerId": "SELLER-004",
      "sellerName": "Dairy Delights",
      "status": "active",
      "createdAt": 1624000000000,
      "updatedAt": 1634000000000,
      "featured": false,
      "rating": 4.8,
      "reviewCount": 76,
      "salesCount": 289
    },
    {
      "_id": "PROD-006",
      "name": "Organic Apple Juice",
      "description": "Fresh-pressed organic apple juice with no added sugars or preservatives.",
      "price": 5.49,
      "unit": "bottle",
      "category": "Beverages",
      "subcategory": "Juices",
      "inventory": 90,
      "sellerId": "SELLER-005",
      "sellerName": "Organic Orchards",
      "status": "pending_approval",
      "createdAt": 1625000000000,
      "updatedAt": 1635000000000,
      "featured": false,
      "rating": 0,
      "reviewCount": 0,
      "salesCount": 0
    }
  ],
  "pagination": {
    "total": 245,
    "page": 1,
    "pageSize": 10,
    "totalPages": 25
  },
  "filters": {
    "categories": [
      "Vegetables",
      "Fruits",
      "Dairy",
      "Meat",
      "Bakery",
      "Beverages",
      "Pantry",
      "Seafood"
    ],
    "statuses": [
      "active",
      "pending_approval",
      "out_of_stock",
      "discontinued"
    ],
    "priceRanges": [
      "Under $5",
      "$5 - $10",
      "$10 - $20",
      "$20 - $50",
      "Over $50"
    ]
  }
}
