{
  "orders": [
    {
      "_id": "ORD-12345",
      "orderNumber": "ORD-12345",
      "status": "pending",
      "paymentStatus": "paid",
      "shippingStatus": "processing",
      "createdAt": 1650000000000,
      "updatedAt": 1650000100000,
      "total": 156.78,
      "subtotal": 142.53,
      "tax": 14.25,
      "shipping": 0,
      "items": [
        {
          "productId": "PROD-001",
          "productName": "Organic Carrots (5lb)",
          "quantity": 5,
          "price": 4.99,
          "total": 24.95,
          "sellerId": "SELLER-001",
          "sellerName": "Green Farms",
          "image": "/bunch-of-carrots.png"
        },
        {
          "productId": "PROD-002",
          "productName": "Artisan Sourdough Bread",
          "quantity": 10,
          "price": 6.99,
          "total": 69.90,
          "sellerId": "SELLER-002",
          "sellerName": "Artisan Bakery",
          "image": "/sourdough-bread.png"
        },
        {
          "productId": "PROD-003",
          "productName": "Grass-Fed Ground Beef",
          "quantity": 5,
          "price": 8.99,
          "total": 44.95,
          "sellerId": "SELLER-003",
          "sellerName": "Premium Meats",
          "image": "/ground-beef.png"
        }
      ],
      "shippingAddress": {
        "name": "Restaurant Address",
        "street": "123 Main St",
        "city": "San Francisco",
        "state": "CA",
        "zip": "94105",
        "country": "USA"
      },
      "paymentMethod": {
        "type": "credit_card",
        "brand": "visa",
        "last4": "4242"
      },
      "notes": "Please deliver before 10am",
      "timeline": [
        {
          "status": "order_placed",
          "timestamp": 1650000000000,
          "message": "Order placed successfully"
        },
        {
          "status": "payment_received",
          "timestamp": 1650000100000,
          "message": "Payment received"
        },
        {
          "status": "processing",
          "timestamp": 1650001000000,
          "message": "Order is being processed"
        }
      ]
    },
    {
      "_id": "ORD-12343",
      "orderNumber": "ORD-12343",
      "status": "processing",
      "paymentStatus": "paid",
      "shippingStatus": "shipped",
      "createdAt": 1649600000000,
      "updatedAt": 1649650000000,
      "total": 123.45,
      "subtotal": 112.23,
      "tax": 11.22,
      "shipping": 0,
      "items": [
        {
          "productId": "PROD-002",
          "productName": "Artisan Sourdough Bread",
          "quantity": 8,
          "price": 6.99,
          "total": 55.92,
          "sellerId": "SELLER-002",
          "sellerName": "Artisan Bakery",
          "image": "/sourdough-bread.png"
        },
        {
          "productId": "PROD-003",
          "productName": "Grass-Fed Ground Beef",
          "quantity": 6,
          "price": 8.99,
          "total": 53.94,
          "sellerId": "SELLER-003",
          "sellerName": "Premium Meats",
          "image": "/ground-beef.png"
        }
      ],
      "shippingAddress": {
        "name": "Restaurant Address",
        "street": "123 Main St",
        "city": "San Francisco",
        "state": "CA",
        "zip": "94105",
        "country": "USA"
      },
      "paymentMethod": {
        "type": "credit_card",
        "brand": "visa",
        "last4": "4242"
      },
      "notes": "",
      "timeline": [
        {
          "status": "order_placed",
          "timestamp": 1649600000000,
          "message": "Order placed successfully"
        },
        {
          "status": "payment_received",
          "timestamp": 1649600100000,
          "message": "Payment received"
        },
        {
          "status": "processing",
          "timestamp": 1649610000000,
          "message": "Order is being processed"
        },
        {
          "status": "shipped",
          "timestamp": 1649650000000,
          "message": "Order has been shipped",
          "trackingNumber": "TRK123456789",
          "carrier": "FedEx"
        }
      ]
    },
    {
      "_id": "ORD-12340",
      "orderNumber": "ORD-12340",
      "status": "completed",
      "paymentStatus": "paid",
      "shippingStatus": "delivered",
      "createdAt": 1649000000000,
      "updatedAt": 1649200000000,
      "total": 78.90,
      "subtotal": 71.73,
      "tax": 7.17,
      "shipping": 0,
      "items": [
        {
          "productId": "PROD-004",
          "productName": "Organic Avocados",
          "quantity": 4,
          "price": 7.99,
          "total": 31.96,
          "sellerId": "SELLER-001",
          "sellerName": "Green Farms",
          "image": "/avocados.png"
        },
        {
          "productId": "PROD-005",
          "productName": "Artisan Goat Cheese",
          "quantity": 3,
          "price": 9.99,
          "total": 29.97,
          "sellerId": "SELLER-004",
          "sellerName": "Dairy Delights",
          "image": "/goat-cheese.png"
        }
      ],
      "shippingAddress": {
        "name": "Restaurant Address",
        "street": "123 Main St",
        "city": "San Francisco",
        "state": "CA",
        "zip": "94105",
        "country": "USA"
      },
      "paymentMethod": {
        "type": "credit_card",
        "brand": "visa",
        "last4": "4242"
      },
      "notes": "",
      "timeline": [
        {
          "status": "order_placed",
          "timestamp": 1649000000000,
          "message": "Order placed successfully"
        },
        {
          "status": "payment_received",
          "timestamp": 1649000100000,
          "message": "Payment received"
        },
        {
          "status": "processing",
          "timestamp": 1649010000000,
          "message": "Order is being processed"
        },
        {
          "status": "shipped",
          "timestamp": 1649100000000,
          "message": "Order has been shipped",
          "trackingNumber": "TRK123456780",
          "carrier": "UPS"
        },
        {
          "status": "delivered",
          "timestamp": 1649200000000,
          "message": "Order has been delivered"
        }
      ]
    }
  ],
  "pagination": {
    "total": 23,
    "page": 1,
    "pageSize": 10,
    "totalPages": 3
  }
}
